
 {

     "panel":
     {
         "colours":
         {
             "dark_bg":"#FF0000",
             "normal_border": "#FF0000"
         }
     },

   "#panel_overview":
   {
            "dark_bg":"#FF0000",
            "normal_border": "#FF0000"
   }
 }
